%YAML 1.1
%TAG !u! tag:unity3d.com,2011:
--- !u!1 &4203630401356556000
GameObject:
  m_ObjectHideFlags: 0
  m_CorrespondingSourceObject: {fileID: 0}
  m_PrefabInstance: {fileID: 0}
  m_PrefabAsset: {fileID: 0}
  serializedVersion: 6
  m_Component:
  - component: {fileID: 4203630401356556002}
  - component: {fileID: 4203630401356556003}
  m_Layer: 0
  m_Name: RPGTalk Holder
  m_TagString: Untagged
  m_Icon: {fileID: 0}
  m_NavMeshLayer: 0
  m_StaticEditorFlags: 0
  m_IsActive: 1
--- !u!4 &4203630401356556002
Transform:
  m_ObjectHideFlags: 0
  m_CorrespondingSourceObject: {fileID: 0}
  m_PrefabInstance: {fileID: 0}
  m_PrefabAsset: {fileID: 0}
  m_GameObject: {fileID: 4203630401356556000}
  m_LocalRotation: {x: 0, y: 0, z: 0, w: 1}
  m_LocalPosition: {x: 0, y: 0, z: 0}
  m_LocalScale: {x: 1, y: 1, z: 1}
  m_Children: []
  m_Father: {fileID: 0}
  m_RootOrder: 0
  m_LocalEulerAnglesHint: {x: 0, y: 0, z: 0}
--- !u!114 &4203630401356556003
MonoBehaviour:
  m_ObjectHideFlags: 0
  m_CorrespondingSourceObject: {fileID: 0}
  m_PrefabInstance: {fileID: 0}
  m_PrefabAsset: {fileID: 0}
  m_GameObject: {fileID: 4203630401356556000}
  m_Enabled: 1
  m_EditorHideFlags: 0
  m_Script: {fileID: 11500000, guid: 565fd263440bd45fa9ba0925c60f54f9, type: 3}
  m_Name: 
  m_EditorClassIdentifier: 
  startOnAwake: 0
  showWithDialog:
  - {fileID: 0}
  textUIObj: {fileID: 0}
  dialoger: 0
  dialogerObj: {fileID: 0}
  shouldFollow: 0
  following: {fileID: 0}
  followingOffset: {x: 0, y: 0, z: 0}
  billboard: 1
  mainCamera: 1
  otherCamera: {fileID: 0}
  txtToParse: {fileID: 4900000, guid: 27e83a3d897e6f7479ce6db416607d41, type: 3}
  enableQuickSkip: 0
  callback:
    m_PersistentCalls:
      m_Calls: []
    m_TypeName: UnityEngine.Events.UnityEvent, UnityEngine.CoreModule, Version=0.0.0.0,
      Culture=neutral, PublicKeyToken=null
  animatorWhenTalking: {fileID: 0}
  actualAnimator: {fileID: 0}
  animatorBooleanName: 
  animatorIntName: 
  cutscenePosition: 0
  textSpeed: 50
  currentChar: 0
  variables:
  - variableName: ItemName
    variableValue: Item Name
  shouldUsePhotos: 0
  characters: []
  UIPhoto: {fileID: 0}
  shouldStayOnScreen: 0
  textAudio: {fileID: 0}
  passAudio: {fileID: 0}
  passWithMouse: 1
  passWithInputButton: 
  passWithKey: 0
  enablePass: 1
  autoPass: 0
  secondsAutoPass: 3
  lineToStart: 1
  lineToBreak: -1
  wordWrap: 1
  maxCharInWidth: 50
  maxCharInHeight: 4
  sprites: []
  spritesUsed: []
  tmpSpriteAtlas: Default Sprite Asset
  actualTextSpeed: 0
  isPlaying: 0
  isAnimating: 0
  choicePrefab: {fileID: 0}
  choicesParent: {fileID: 0}
  expressing:
    name: 
    photo: {fileID: 0}
    boolInAnimator: 
    audio: {fileID: 0}
  saveInstance: {fileID: 0}
  goBackToOriginalStartAndBreak: 1
